{
  "compilerOptions": {
    "target": "es6",
    "baseUrl": ".",
    "paths": {
      "components/*": ["./src/components/*"]
    }
  },
  "exclude": ["node_modules", "**/node_modules/*", "build", ".vscode", ".idea"]
}
